…
```r
# Separate columns and replace NA
wwc_3  <- wwc_2  %>% 
  separate(score, c("home_score", "away_score"), sep =  "-", convert = TRUE)  %>% 
  separate(pks, c("home_pks", "away_pks"), sep = "-", convert = TRUE)  %>% 
  mutate(home_pks = replace_na(home_pks, 0),
         away_pks = replace_na(away_pks, 0))

# Print the data
wwc_3
```

```
# A tibble: 55 × 15
   round       wk    day   date       time  home  home_score away_score home_pks
   <fct>       <chr> <chr> <date>     <tim> <chr>      <dbl>      <int>    <dbl>
 1 Group stage 1     Fri   2019-06-07 21:00 Fran…          4          0        0
 2 Group stage 1     Sat   2019-06-08 15:00 Germ…          1          0        0
 3 Group stage 1     Sat   2019-06-08 18:00 Spain          3          1        0
 4 Group stage 1     Sat   2019-06-08 21:00 Norw…          3          0        0
 5 Group stage 1     Sun   2019-06-09 13:00 Aust…          1          2        0
 6 Group stage 1     Sun   2019-06-09 15:30 Braz…          3          0        0
 7 Group stage 1     Sun   2019-06-09 18:00 Engl…          2          1        0
 8 Group stage 1     Mon   2019-06-10 18:00 Arge…          0          0        0
 9 Group stage 1     Mon   2019-06-10 21:00 Cana…          1          0        0
10 Group stage 1     Tue   2019-06-11 15:00 New …          0          1        0
# … with 45 more rows, and 6 more variables: away_pks <int>, away <chr>,
#   attendance <dbl>, venue <fct>, referee <chr>, notes <chr>
```
…
- Questions:

  - Which match had the highest attendance during the tournament?

  - In what stadium was the match with the highest attendance played?


```r
wwc_4 %>% 
  select(round, attendance, venue) %>% 
  arrange(desc(attendance))
```

```
# A tibble: 55 × 3
   round         attendance venue             
   <fct>              <dbl> <fct>             
 1 Final              57900 "Groupama Stadium"
 2 Semifinals         53512 ""                
 3 Semifinals         48452 "Groupama Stadium"
 4 Quarterfinals      45595 "Parc des Princes"
 5 Group stage        45594 "Parc des Princes"
 6 Group stage        45261 "Parc des Princes"
 7 Round of 16        38078 "Parc des Princes"
 8 Group stage        34872 "Stade de Nice"   
 9 Group stage        28267 "Roazhon Park"    
10 Group stage        28205 "Parc des Princes"
# … with 45 more rows
```
