…
Quick recap: Code
======================================================== 


```r
gapminder %>%
    group_by(year, continent) %>% 
    summarize(totalPop = sum(pop),
    meanLifeExp = mean(lifeExp))
```

```
# A tibble: 60 × 4
# Groups:   year [12]
    year continent   totalPop meanLifeExp
   <int> <fct>          <dbl>       <dbl>
 1  1952 Africa     237640501        39.1
 2  1952 Americas   345152446        53.3
 3  1952 Asia      1395357351        46.3
 4  1952 Europe     418120846        64.4
 5  1952 Oceania     10686006        69.3
 6  1957 Africa     264837738        41.3
 7  1957 Americas   386953916        56.0
 8  1957 Asia      1562780599        49.3
 9  1957 Europe     437890351        66.7
10  1957 Oceania     11941976        70.3
# … with 50 more rows
```
…
```r
# Print out potatoes
potatoes
```

```
# A tibble: 160 × 8
    area  temp  size storage method texture flavor moistness
   <dbl> <dbl> <dbl>   <dbl>  <dbl>   <dbl>  <dbl>     <dbl>
 1     1     1     1       1      1     2.9    3.2       3  
 2     1     1     1       1      2     2.3    2.5       2.6
 3     1     1     1       1      3     2.5    2.8       2.8
 4     1     1     1       1      4     2.1    2.9       2.4
 5     1     1     1       1      5     1.9    2.8       2.2
 6     1     1     1       2      1     1.8    3         1.7
 7     1     1     1       2      2     2.6    3.1       2.4
 8     1     1     1       2      3     3      3         2.9
 9     1     1     1       2      4     2.2    3.2       2.5
10     1     1     1       2      5     2      2.8       1.9
# … with 150 more rows
```
…
